{
  "urls": ["https://www.debate.org/opinions/should-drug-users-be-put-in-prison", 
           "https://www.debate.org/opinions/is-youtube-a-platform-for-individuals", 
           "https://www.debate.org/opinions/in-terms-of-grahics-moddability-and-price-do-you-think-minecraft-is-a-good-game"]
}